…
}

## reads a cached Parquet and gets more recent rows from the geoserver
uwy <- get_underway()

(data <- dplyr::inner_join(env, uwy, "gml_id"))
#> # A tibble: 713,277 × 95
#>    gml_id   NSIDC_SEAICE_PS_S25k…¹ SEALEVEL_GLO_PHY_L4_…² SEALEVEL_GLO_PHY_L4_…³
#>    <chr>                     <dbl>                  <dbl>                  <dbl>
#>  1 nuyina_…                     NA                     NA                  0.103
#>  2 nuyina_…                     NA                     NA                  0.103
#>  3 nuyina_…                     NA                     NA                  0.103
#>  4 nuyina_…                     NA                     NA                  0.103
#>  5 nuyina_…                     NA                     NA                  0.103
#>  6 nuyina_…                     NA                     NA                  0.103
#>  7 nuyina_…                     NA                     NA                  0.103
#>  8 nuyina_…                     NA                     NA                  0.103
#>  9 nuyina_…                     NA                     NA                  0.103
#> 10 nuyina_…                     NA                     NA                  0.103
#> # ℹ 713,267 more rows
#> # ℹ abbreviated names: ¹​NSIDC_SEAICE_PS_S25km_1, ²​SEALEVEL_GLO_PHY_L4_adt,
#> #   ³​SEALEVEL_GLO_PHY_L4_sla
#> # ℹ 91 more variables: SEALEVEL_GLO_PHY_L4_ugos <dbl>,
#> #   SEALEVEL_GLO_PHY_L4_vgos <dbl>, `antarctica-amsr2-asi-s3125-tif_1` <int>,
#> #   `ghrsst-tif_1` <dbl>, `oisst-tif_1` <dbl>, set_code <chr>, datetime <dttm>,
#> #   latitude <dbl>, longitude <dbl>, platform_heave_down <dbl>, …
…
